linear: 
  x: 2.0
  y: 0.0
  z: 0.0
angular: 
  x: 0.0
  y: 0.0
  z: 1.8
---
linear: 
  x: 2.0
  y: 0.0
  z: 0.0
angular: 
  x: 0.0
  y: 0.0
  z: 1.8
---
linear: 
  x: 2.0
  y: 0.0
  z: 0.0
angular: 
  x: 0.0
  y: 0.0
  z: 1.8
---
linear: 
  x: 2.0
  y: 0.0
  z: 0.0
angular: 
  x: 0.0
  y: 0.0
  z: 0.0
---
linear: 
  x: 2.0
  y: 0.0
  z: 0.0
angular: 
  x: 0.0
  y: 0.0
  z: -1.8
---
linear: 
  x: 2.0
  y: 0.0
  z: 0.0
angular: 
  x: 0.0
  y: 0.0
  z: -1.8
---
linear: 
  x: 2.0
  y: 0.0
  z: 0.0
angular: 
  x: 0.0
  y: 0.0
  z: -1.8
---
